=================================================================================================================================================
TWEET:	Today very cheap for 2198597 Icemaker.And Free shipping for 2198597 Icemaker too. http://t.co/6CLkWAiO@French @Apple @Peeler
HANDCODED_EMOTION:	irrelevant
SUM_SCORE:	somewhat negative 0.99453125
EMOTICONS_SCORE:	0.0
COMBINED_SUM_EMOTICONS:	0.99453125
NVAR_SCORE:	1.0
ASPECTS:	[u'apple', u'cheap', u'shipping', u'icemaker', u'peeler', u'today']
=================================================================================================================================================
TWEET:	@fashionNOGuilt haha! tomorrow should be less hectic too! 'cause everyone and their moms was at the @apple store today! ;]
HANDCODED_EMOTION:	neutral
SUM_SCORE:	somewhat negative 0.989583333333
EMOTICONS_SCORE:	0.0
COMBINED_SUM_EMOTICONS:	0.989583333333
NVAR_SCORE:	1.0
ASPECTS:	[u'apple', u'moms', u'fashionnoguilt', u'haha', u'today', u'cause', u'tomorrow', u'store']
=================================================================================================================================================
TWEET:	DAMN YOU !!! @apple
HANDCODED_EMOTION:	negative
SUM_SCORE:	somewhat negative 0.833333333333
EMOTICONS_SCORE:	0.0
COMBINED_SUM_EMOTICONS:	0.833333333333
NVAR_SCORE:	0.75
ASPECTS:	[]
=================================================================================================================================================
TWEET:	Love love love iOS 5!! @apple
HANDCODED_EMOTION:	positive
SUM_SCORE:	somewhat positive 1.44230769231
EMOTICONS_SCORE:	0.0
COMBINED_SUM_EMOTICONS:	1.44230769231
NVAR_SCORE:	1.0
ASPECTS:	[u'ios', u'love']
=================================================================================================================================================
TWEET:	Discount Hemp Knots today.Cheap price too.Save money for best Hemp Knots. http://t.co/9H3jopLq@Avanti @Apple @Peeler
HANDCODED_EMOTION:	irrelevant
SUM_SCORE:	somewhat positive 1.05472397292
EMOTICONS_SCORE:	0.0
COMBINED_SUM_EMOTICONS:	1.05472397292
NVAR_SCORE:	1.15625
ASPECTS:	[u'knots', u'money', u'price', u'cheap', u'discount', u'hemp', u'save', u'peeler', u'today']
=================================================================================================================================================
TWEET:	One of the great #entrepreneurs has died. #Steve #Jobs has passed away. Our hearts go out to his family and everyone at @Apple
HANDCODED_EMOTION:	neutral
SUM_SCORE:	somewhat negative 0.989787581699
EMOTICONS_SCORE:	0.0
COMBINED_SUM_EMOTICONS:	0.989787581699
NVAR_SCORE:	1.0
ASPECTS:	[u'jobs', u'apple', u'family', u'everyone', u'entrepreneurs', u'hearts']
=================================================================================================================================================
TWEET:	@tvnewschick @apple Oh no! Why not?! I want it to be love-love-love! It's a lot of dough to spend otherwise...
HANDCODED_EMOTION:	neutral
SUM_SCORE:	somewhat positive 1.04471153846
EMOTICONS_SCORE:	0.0
COMBINED_SUM_EMOTICONS:	1.04471153846
NVAR_SCORE:	0.84375
ASPECTS:	[u'apple', u'lot', u'spend', u'tvnewschick']
=================================================================================================================================================
TWEET:	RT @gdcurry: Really @Apple?  What have you done to my iTunes now?  I can't click on Music, Movies, TV Shows, or any playlists. I get a l ...
HANDCODED_EMOTION:	negative
SUM_SCORE:	somewhat positive 1.06757142857
EMOTICONS_SCORE:	0.0
COMBINED_SUM_EMOTICONS:	1.06757142857
NVAR_SCORE:	1.0
ASPECTS:	[u'playlists', u'movies', u'l', u'itunes', u'gdcurry', u'music', u'click']
=================================================================================================================================================
TWEET:	Today very cheap for Hemp For Fuel.And Free shipping for Hemp For Fuel too. http://t.co/8gyJLbMW@Farberware @Apple @Peeler
HANDCODED_EMOTION:	irrelevant
SUM_SCORE:	somewhat negative 0.992527173913
EMOTICONS_SCORE:	0.0
COMBINED_SUM_EMOTICONS:	0.992527173913
NVAR_SCORE:	0.982142857143
ASPECTS:	[u'apple', u'cheap', u'shipping', u'fuel', u'hemp', u'peeler', u'today']
=================================================================================================================================================
TWEET:	Sabias que.... RT @MkDirecto Los usuarios del #iPad desayunan y cenan con la #tableta de @Apple: http://t.co/eYXCQQmK
HANDCODED_EMOTION:	irrelevant
SUM_SCORE:	neutral 1.0
EMOTICONS_SCORE:	0.0
COMBINED_SUM_EMOTICONS:	1.0
NVAR_SCORE:	1.0
ASPECTS:	[u'usuarios', u'apple', u'tableta', u'la', u'cenan', u'sabias']
=================================================================================================================================================
TWEET:	@vlingo is a POOR substitute for Siri!! Yo @APPLE, gimmie Siri!!!!
HANDCODED_EMOTION:	neutral
SUM_SCORE:	somewhat negative 0.794642857143
EMOTICONS_SCORE:	0.0
COMBINED_SUM_EMOTICONS:	0.794642857143
NVAR_SCORE:	0.75
ASPECTS:	[u'apple', u'siri', u'gimmie', u'substitute']
=================================================================================================================================================
TWEET:	@rogriffo VC Viu ontem A @Apple Estava dando IPhone 3 No Site dos estados Unidos
HANDCODED_EMOTION:	irrelevant
SUM_SCORE:	neutral 1.0
EMOTICONS_SCORE:	0.0
COMBINED_SUM_EMOTICONS:	1.0
NVAR_SCORE:	1.0
ASPECTS:	[u'vc', u'apple', u'unidos', u'viu', u'site', u'rogriffo', u'dando', u'estados', u'ontem', u'iphone']
=================================================================================================================================================
TWEET:	after being on hold with @apple for the last 30 mins, i really like their music selection of on-hold music. White Stripes, Ray Lamontagne...
HANDCODED_EMOTION:	neutral
SUM_SCORE:	somewhat positive 1.12725215817
EMOTICONS_SCORE:	0.0
COMBINED_SUM_EMOTICONS:	1.12725215817
NVAR_SCORE:	1.0
ASPECTS:	[u'mins', u'apple', u'stripes', u'selection', u'music', u'hold', u'white', u'lamontagne']
=================================================================================================================================================
TWEET:	@ford should have teamed up with @Apple instead of @microsoft to make this SYNC system in my new focus. Car is sweet SYNC is #EpicFail
HANDCODED_EMOTION:	negative
SUM_SCORE:	somewhat positive 1.05494505495
EMOTICONS_SCORE:	0.0
COMBINED_SUM_EMOTICONS:	1.05494505495
NVAR_SCORE:	1.0
ASPECTS:	[u'car', u'make', u'focus', u'sync', u'epicfail', u'sweet']
=================================================================================================================================================
TWEET:	#Siri went down for a little while last night. Come on @apple! Get your shit together on this launch!
HANDCODED_EMOTION:	negative
SUM_SCORE:	somewhat negative 0.882445679321
EMOTICONS_SCORE:	0.0
COMBINED_SUM_EMOTICONS:	0.882445679321
NVAR_SCORE:	0.9375
ASPECTS:	[u'apple', u'launch', u'siri', u'night', u'shit']
=================================================================================================================================================
TWEET:	Houston we have a problem!! My iPad has been restoring for 12+ hours after installing @apple IOS5. This can't be right....
HANDCODED_EMOTION:	negative
SUM_SCORE:	somewhat negative 0.862265144153
EMOTICONS_SCORE:	0.0
COMBINED_SUM_EMOTICONS:	0.862265144153
NVAR_SCORE:	0.910714285714
ASPECTS:	[u'ipad', u'houston', u'apple', u'ios', u'hours', u'problem']
=================================================================================================================================================
TWEET:	Buy more products of Hemp Jewelry Instructions now.Free ship http://t.co/928bPS4t@Lehmans @Apple @Peeler
HANDCODED_EMOTION:	irrelevant
SUM_SCORE:	somewhat positive 1.060546875
EMOTICONS_SCORE:	0.0
COMBINED_SUM_EMOTICONS:	1.060546875
NVAR_SCORE:	1.0625
ASPECTS:	[u'buy', u'apple', u'jewelry', u'peeler', u'products', u'hemp', u'ship', u'instructions']
=================================================================================================================================================
TWEET:	This does not bode well. After charging all night, my @Apple iPhone 4S has 25% battery after only 3hr off charger with no calls & light use
HANDCODED_EMOTION:	negative
SUM_SCORE:	somewhat negative 0.936834415584
EMOTICONS_SCORE:	0.0
COMBINED_SUM_EMOTICONS:	0.936834415584
NVAR_SCORE:	0.958333333333
ASPECTS:	[u'apple', u'calls', u'battery', u'iphone', u'night']
=================================================================================================================================================
TWEET:	It's been 24hrs since I reported @ups theft of my iPhone and @apple has done nothing. No return call as promised. Nothing.
HANDCODED_EMOTION:	negative
SUM_SCORE:	somewhat positive 1.00285714286
EMOTICONS_SCORE:	0.0
COMBINED_SUM_EMOTICONS:	1.00285714286
NVAR_SCORE:	1.04166666667
ASPECTS:	[u'return', u'apple', u'hrs', u's', u'done', u'iphone', u'ups']
=================================================================================================================================================
TWEET:	@RealEstateGuyWI All about yesterday's @Apple upgrade. Helpful but maddening
HANDCODED_EMOTION:	neutral
SUM_SCORE:	somewhat positive 1.04204545455
EMOTICONS_SCORE:	0.0
COMBINED_SUM_EMOTICONS:	1.04204545455
NVAR_SCORE:	1.0625
ASPECTS:	[u'upgrade', u'maddening', u'yesterday', u'realestateguywi', u'apple']
=================================================================================================================================================
TWEET:	Dear @apple, One day you're going to release a version of iTunes that doesn't freeze more often than it works. One day.
HANDCODED_EMOTION:	negative
SUM_SCORE:	somewhat positive 1.05500749251
EMOTICONS_SCORE:	0.0
COMBINED_SUM_EMOTICONS:	1.05500749251
NVAR_SCORE:	1.03125
ASPECTS:	[u'apple', u'freeze', u'itunes', u're', u'version', u'dear', u'release', u'day']
=================================================================================================================================================
TWEET:	total time on the phone with @apple: 1 hour 27 minutes. let's see how this goes.
HANDCODED_EMOTION:	negative
SUM_SCORE:	neutral 1.0
EMOTICONS_SCORE:	0.0
COMBINED_SUM_EMOTICONS:	1.0
NVAR_SCORE:	1.0
ASPECTS:	[u'apple', u'hour', u'phone', u'minutes']
=================================================================================================================================================
TWEET:	@Apple: Siri is amazing!!! I'm in love!
HANDCODED_EMOTION:	positive
SUM_SCORE:	somewhat positive 1.07986111111
EMOTICONS_SCORE:	0.0
COMBINED_SUM_EMOTICONS:	1.07986111111
NVAR_SCORE:	1.0
ASPECTS:	[u'love', u'siri', u'm', u'apple']
=================================================================================================================================================
TWEET:	Wow I am loving this new @apple update for my touch. #coolness Well done
HANDCODED_EMOTION:	positive
SUM_SCORE:	somewhat positive 1.193125
EMOTICONS_SCORE:	0.0
COMBINED_SUM_EMOTICONS:	1.193125
NVAR_SCORE:	0.958333333333
ASPECTS:	[u'apple', u'wow', u'update', u'done', u'touch', u'coolness']
=================================================================================================================================================
TWEET:	@apple took my Siri and made it exclusive to iPhone 4S  #SoRude
HANDCODED_EMOTION:	negative
SUM_SCORE:	somewhat positive 1.02380952381
EMOTICONS_SCORE:	0.0
COMBINED_SUM_EMOTICONS:	1.02380952381
NVAR_SCORE:	0.6875
ASPECTS:	[u'sorude', u'apple', u'siri', u'iphone']
=================================================================================================================================================
TWEET:	@apple, #siri can't connect to the network -- it's LESS useful that VoiceControl now... :(
HANDCODED_EMOTION:	negative
SUM_SCORE:	neutral 1.0
EMOTICONS_SCORE:	0.0
COMBINED_SUM_EMOTICONS:	0.5
NVAR_SCORE:	1.0
ASPECTS:	[u'network', u'voicecontrol', u'siri', u't', u'connect', u'apple']
=================================================================================================================================================
TWEET:	@fabi_m not that I know of. I think it is only on iOS, should get @apple to make a desktop app :)
HANDCODED_EMOTION:	neutral
SUM_SCORE:	somewhat positive 1.0970959596
EMOTICONS_SCORE:	1.75
COMBINED_SUM_EMOTICONS:	1.4235479798
NVAR_SCORE:	1.125
ASPECTS:	[u'ios', u'fabi_m', u'desktop', u'know', u'app', u'make']
=================================================================================================================================================
TWEET:	@notleifgarrett @apple you'll be able to afford that mansion one day.
HANDCODED_EMOTION:	neutral
SUM_SCORE:	somewhat positive 1.04081632653
EMOTICONS_SCORE:	0.0
COMBINED_SUM_EMOTICONS:	1.04081632653
NVAR_SCORE:	1.03125
ASPECTS:	[u'apple', u'afford', u'notleifgarrett', u'day', u'mansion', u'll']
=================================================================================================================================================
TWEET:	Hmmmm a lot of #Siri features don't work in Canada. Location and directions? Seriously @apple come on!
HANDCODED_EMOTION:	negative
SUM_SCORE:	somewhat negative 0.994143002028
EMOTICONS_SCORE:	0.0
COMBINED_SUM_EMOTICONS:	0.994143002028
NVAR_SCORE:	0.95
ASPECTS:	[u'canada', u'siri', u'features', u'work', u'directions', u'hmmmm', u'location']
=================================================================================================================================================
TWEET:	...now with Siri were talking to our iPhones... how will we ever know if people are really truly crazy? :P #iphone4s #Siri #apple @apple
HANDCODED_EMOTION:	neutral
SUM_SCORE:	somewhat positive 1.04937214612
EMOTICONS_SCORE:	0.0
COMBINED_SUM_EMOTICONS:	1.04937214612
NVAR_SCORE:	1.14285714286
ASPECTS:	[u'apple', u'iphone', u'people', u'siri', u'iphones']
=================================================================================================================================================
TWEET:	And @Apple I still have an old MBP from 2006 which I use - which can't run #Lion, I still like to sync it!
HANDCODED_EMOTION:	neutral
SUM_SCORE:	somewhat positive 1.04559178744
EMOTICONS_SCORE:	0.0
COMBINED_SUM_EMOTICONS:	1.04559178744
NVAR_SCORE:	1.0
ASPECTS:	[u'apple', u'sync', u'lion', u'mbp']
=================================================================================================================================================
TWEET:	Good support fm Kevin @apple #Bellevue store 4 biz customers TY!
HANDCODED_EMOTION:	positive
SUM_SCORE:	somewhat positive 1.26690641534
EMOTICONS_SCORE:	0.0
COMBINED_SUM_EMOTICONS:	1.26690641534
NVAR_SCORE:	1.125
ASPECTS:	[u'customers', u'bellevue', u'apple', u'support', u'store', u'fm', u'kevin']
=================================================================================================================================================
TWEET:	@KeepnUpWitTBoyd @AppStore @iTunesMusic they fixed a bug Thursday after I had done my update? Thus my issue, spent Fri @apple  #iOS5
HANDCODED_EMOTION:	neutral
SUM_SCORE:	somewhat positive 1.02372685185
EMOTICONS_SCORE:	0.0
COMBINED_SUM_EMOTICONS:	1.02372685185
NVAR_SCORE:	0.95
ASPECTS:	[u'keepnupwittboyd', u'apple', u'fri', u'ios', u'thursday', u'spent', u'issue', u'bug']
=================================================================================================================================================
TWEET:	#iOs5 is nice and as it had to be ! Thanks @Apple
HANDCODED_EMOTION:	positive
SUM_SCORE:	somewhat positive 1.41666666667
EMOTICONS_SCORE:	0.0
COMBINED_SUM_EMOTICONS:	1.41666666667
NVAR_SCORE:	0.916666666667
ASPECTS:	[u'ios', u'thanks']
=================================================================================================================================================
TWEET:	bored - need a new intriguing #app for my #iPad.  Any suggestions?  @apple #yyc @Gadget_Guy
HANDCODED_EMOTION:	neutral
SUM_SCORE:	somewhat positive 1.13668699187
EMOTICONS_SCORE:	0.0
COMBINED_SUM_EMOTICONS:	1.13668699187
NVAR_SCORE:	0.9375
ASPECTS:	[u'ipad', u'intriguing', u'app', u'suggestions', u'gadget_guy', u'yyc']
=================================================================================================================================================
TWEET:	@apple in Austin:  domain location - umbrellas are nice but being staffed properly would be better.
HANDCODED_EMOTION:	neutral
SUM_SCORE:	somewhat positive 1.16091954023
EMOTICONS_SCORE:	0.0
COMBINED_SUM_EMOTICONS:	1.16091954023
NVAR_SCORE:	1.125
ASPECTS:	[u'domain', u'apple', u'location', u'austin', u'umbrellas', u'nice']
=================================================================================================================================================
TWEET:	Thinking more, I want Android to do an iMessage service & for @Google & @Apple to interconnect. They would if the cared about their users.
HANDCODED_EMOTION:	neutral
SUM_SCORE:	somewhat positive 1.07697368421
EMOTICONS_SCORE:	0.0
COMBINED_SUM_EMOTICONS:	1.07697368421
NVAR_SCORE:	1.0
ASPECTS:	[u'google', u'interconnect', u'apple', u'service', u'imessage', u'users']
=================================================================================================================================================
TWEET:	*sigh* @apple store seems stumped what to do about my catastrophically bad battery life after upgrading to #ios5
HANDCODED_EMOTION:	negative
SUM_SCORE:	somewhat negative 0.898611111111
EMOTICONS_SCORE:	0.0
COMBINED_SUM_EMOTICONS:	0.898611111111
NVAR_SCORE:	0.803571428571
ASPECTS:	[u'apple', u'battery', u'sigh', u'life', u'ios', u'store']
=================================================================================================================================================
TWEET:	@apple cu
HANDCODED_EMOTION:	negative
SUM_SCORE:	neutral 1.0
EMOTICONS_SCORE:	0.0
COMBINED_SUM_EMOTICONS:	1.0
NVAR_SCORE:	1.0
ASPECTS:	[u'apple']
=================================================================================================================================================
TWEET:	@xwordy iCloud was new; I didn't need weather or stocks but they were there pre #ios5 so I'm not hopeful that this will help @apple
HANDCODED_EMOTION:	neutral
SUM_SCORE:	somewhat negative 0.994455645161
EMOTICONS_SCORE:	0.0
COMBINED_SUM_EMOTICONS:	0.994455645161
NVAR_SCORE:	1.0
ASPECTS:	[u'apple', u'xwordy', u'didn', u'ios', u'weather', u'stocks', u'help']
=================================================================================================================================================
TWEET:	RT @TheMacMob: Sprint, Verizon & AT&T @Apple Stores http://t.co/ZOzR0UUz
HANDCODED_EMOTION:	neutral
SUM_SCORE:	neutral 1.0
EMOTICONS_SCORE:	0.0
COMBINED_SUM_EMOTICONS:	1.0
NVAR_SCORE:	1.0
ASPECTS:	[u'stores', u'apple', u'verizon', u't', u'themacmob']
=================================================================================================================================================
TWEET:	Also @EricGreenspan, don't forget @Apple stop closing the app store after each bloody purchase...
HANDCODED_EMOTION:	negative
SUM_SCORE:	somewhat negative 0.95375
EMOTICONS_SCORE:	0.0
COMBINED_SUM_EMOTICONS:	0.95375
NVAR_SCORE:	1.0
ASPECTS:	[u'purchase', u'ericgreenspan', u'apple', u'app', u'stop', u'bloody', u'closing', u'store', u'forget']
=================================================================================================================================================
TWEET:	Well @apple seems 2b screwing #iphone 4s resellars. They still dont have 4s. Yet were promised. Similar 2 Ma Bell's monopolistic prctices?
HANDCODED_EMOTION:	negative
SUM_SCORE:	somewhat negative 0.957175925926
EMOTICONS_SCORE:	0.0
COMBINED_SUM_EMOTICONS:	0.957175925926
NVAR_SCORE:	0.928571428571
ASPECTS:	[u'b', u'apple', u'bell', u'iphone', u'prctices', u'resellars']
=================================================================================================================================================
TWEET:	In less than an hour my post- #iOS5 iPhone has gone from 100% to 73% battery charge and the @apple store folks have no solution for me :(
HANDCODED_EMOTION:	negative
SUM_SCORE:	somewhat negative 0.917239010989
EMOTICONS_SCORE:	0.0
COMBINED_SUM_EMOTICONS:	0.458619505495
NVAR_SCORE:	0.953125
ASPECTS:	[u'gone', u'apple', u'hour', u'ios', u'solution', u'charge', u'iphone', u'folks', u'post', u'store']
=================================================================================================================================================
TWEET:	@ireton Perhaps it's time for @Apple to come out with an app called iSuck that lets you know which apps are killing your battery life
HANDCODED_EMOTION:	neutral
SUM_SCORE:	somewhat positive 1.03519503546
EMOTICONS_SCORE:	0.0
COMBINED_SUM_EMOTICONS:	1.03519503546
NVAR_SCORE:	0.958333333333
ASPECTS:	[u'isuck', u'apple', u'ireton', u'battery', u'come', u'app', u'apps', u'lets', u'time', u'life']
=================================================================================================================================================
TWEET:	What do we have to do to get Flash on #iPad? @Apple please please please change your mind. Thank you in advance! @kusi_sk  @PeterNemcok
HANDCODED_EMOTION:	neutral
SUM_SCORE:	somewhat negative 0.982131465026
EMOTICONS_SCORE:	0.0
COMBINED_SUM_EMOTICONS:	0.982131465026
NVAR_SCORE:	1.01785714286
ASPECTS:	[u'apple', u'get', u'kusi_sk', u'peternemcok', u'advance', u'change', u'thank']
=================================================================================================================================================
TWEET:	90 minutes after being at 100% my iPhone 4 (post #ios5 upgrade) has lost 40% of its charge and the @apple store folks are out of ideas.
HANDCODED_EMOTION:	negative
SUM_SCORE:	somewhat negative 0.928515234765
EMOTICONS_SCORE:	0.0
COMBINED_SUM_EMOTICONS:	0.928515234765
NVAR_SCORE:	0.982142857143
ASPECTS:	[u'apple', u'minutes', u'ios', u'ideas', u'charge', u'iphone', u'folks', u'post', u'store']
=================================================================================================================================================
TWEET:	@rjakesuk mine is past the warranty and I don't have AppleCare. #ios5 @apple
HANDCODED_EMOTION:	neutral
SUM_SCORE:	somewhat negative 0.958333333333
EMOTICONS_SCORE:	0.0
COMBINED_SUM_EMOTICONS:	0.958333333333
NVAR_SCORE:	1.0
ASPECTS:	[u'warranty', u'ios', u'rjakesuk']
=================================================================================================================================================
TWEET:	The #iphone4s is  amazing. Siri's voice recognition is absolutely a step above previous attempts. Bravo @apple
HANDCODED_EMOTION:	positive
SUM_SCORE:	somewhat positive 1.0681022409
EMOTICONS_SCORE:	0.0
COMBINED_SUM_EMOTICONS:	1.0681022409
NVAR_SCORE:	1.08333333333
ASPECTS:	[u'attempts', u'siri', u'iphone', u'voice', u'recognition']
=================================================================================================================================================
TWEET:	Iphone update is great but seriously @apple let me delete stuff I dont want like gamecenter. Steve wont mind...
HANDCODED_EMOTION:	neutral
SUM_SCORE:	somewhat positive 1.05758647799
EMOTICONS_SCORE:	0.0
COMBINED_SUM_EMOTICONS:	1.05758647799
NVAR_SCORE:	0.958333333333
ASPECTS:	[u'wont', u'stuff', u'dont', u'iphone', u'gamecenter']
=================================================================================================================================================
TWEET:	@samsung and @apple never rest as they battle in court yet again over tablets.(not the pills)
HANDCODED_EMOTION:	neutral
SUM_SCORE:	somewhat negative 0.993006993007
EMOTICONS_SCORE:	0.0
COMBINED_SUM_EMOTICONS:	0.993006993007
NVAR_SCORE:	1.05
ASPECTS:	[u'court', u'apple', u'samsung', u'rest', u'pills']
=================================================================================================================================================
TWEET:	@apple and I'm looking at the outside & all you see is sticky notes about steve jobs
HANDCODED_EMOTION:	neutral
SUM_SCORE:	somewhat positive 1.00757575758
EMOTICONS_SCORE:	0.0
COMBINED_SUM_EMOTICONS:	1.00757575758
NVAR_SCORE:	1.0
ASPECTS:	[u'jobs', u'apple', u'outside', u'notes']
=================================================================================================================================================
TWEET:	@tomcolontonio @apple #EPICFAIL
HANDCODED_EMOTION:	negative
SUM_SCORE:	neutral 1.0
EMOTICONS_SCORE:	0.0
COMBINED_SUM_EMOTICONS:	1.0
NVAR_SCORE:	1.0
ASPECTS:	[u'epicfail', u'tomcolontonio', u'apple']
=================================================================================================================================================
TWEET:	RT @tomcolontonio: Didn't it occur to @apple #apple that ppl share iTunes accounts amongst family's ????? Wtf!!!!
HANDCODED_EMOTION:	negative
SUM_SCORE:	somewhat positive 1.07459677419
EMOTICONS_SCORE:	0.0
COMBINED_SUM_EMOTICONS:	1.07459677419
NVAR_SCORE:	1.0
ASPECTS:	[u'apple', u'didn', u'share', u'ppl', u'itunes', u'accounts', u'tomcolontonio']
=================================================================================================================================================
TWEET:	Hello you are find Mesh Jacket Motorcycle? Our site have more Mesh http://t.co/tYg4Ualc@Ace @Hardware @Apple @Pee
HANDCODED_EMOTION:	irrelevant
SUM_SCORE:	somewhat positive 1.00752314815
EMOTICONS_SCORE:	0.0
COMBINED_SUM_EMOTICONS:	1.00752314815
NVAR_SCORE:	0.953125
ASPECTS:	[u'hardware', u'apple', u'site', u'jacket', u'motorcycle', u'pee', u'hello']
=================================================================================================================================================
TWEET:	@apple give me my apps back!!!
HANDCODED_EMOTION:	negative
SUM_SCORE:	neutral 1.0
EMOTICONS_SCORE:	0.0
COMBINED_SUM_EMOTICONS:	1.0
NVAR_SCORE:	1.0
ASPECTS:	[u'apple']
=================================================================================================================================================
TWEET:	@apple thanks apple for ios 5 and losing all my contacts!
HANDCODED_EMOTION:	negative
SUM_SCORE:	neutral 1.0
EMOTICONS_SCORE:	0.0
COMBINED_SUM_EMOTICONS:	1.0
NVAR_SCORE:	0.875
ASPECTS:	[u'contacts', u'ios', u'thanks']
=================================================================================================================================================
TWEET:	has been on terminal hold with @apple support!  She must not be the only person having trouble with the new iphone and synching!
HANDCODED_EMOTION:	negative
SUM_SCORE:	somewhat positive 1.01670058648
EMOTICONS_SCORE:	0.0
COMBINED_SUM_EMOTICONS:	1.01670058648
NVAR_SCORE:	0.888888888889
ASPECTS:	[u'apple', u'support', u'person', u'iphone', u'trouble', u'hold']
=================================================================================================================================================
TWEET:	Esperaba mas de &quot;IOS 5&quot; @Apple
HANDCODED_EMOTION:	irrelevant
SUM_SCORE:	neutral 1.0
EMOTICONS_SCORE:	0.0
COMBINED_SUM_EMOTICONS:	1.0
NVAR_SCORE:	1.0
ASPECTS:	[u'ios', u'esperaba', u'apple']
=================================================================================================================================================
TWEET:	Disappointing visual merchandising, @apple. Simple, but lacks elegance. And sequence doesn't even tell us about #Siri. http://t.co/XV2q3gfi
HANDCODED_EMOTION:	negative
SUM_SCORE:	somewhat positive 1.04602425876
EMOTICONS_SCORE:	0.0
COMBINED_SUM_EMOTICONS:	1.04602425876
NVAR_SCORE:	1.078125
ASPECTS:	[u'merchandising', u'sequence', u'simple', u'siri', u'elegance', u'doesn', u'apple']
=================================================================================================================================================
TWEET:	Bummer that @Apple #iCloud syncs on Windows only w/ Outlook (not Thunderbird) & IE (not Firefox, Chrome). #sadmac
HANDCODED_EMOTION:	negative
SUM_SCORE:	somewhat negative 0.908653846154
EMOTICONS_SCORE:	0.0
COMBINED_SUM_EMOTICONS:	0.908653846154
NVAR_SCORE:	0.895833333333
ASPECTS:	[u'outlook', u'sadmac', u'firefox', u'w', u'bummer', u'thunderbird', u'syncs', u'chrome', u'icloud', u'apple']
=================================================================================================================================================
TWEET:	Whoa! Line at @apple store in Glendale for iPhone 4S  http://t.co/yZlpogXB
HANDCODED_EMOTION:	neutral
SUM_SCORE:	somewhat negative 0.99255952381
EMOTICONS_SCORE:	0.0
COMBINED_SUM_EMOTICONS:	0.99255952381
NVAR_SCORE:	1.0
ASPECTS:	[u'apple', u'iphone', u'glendale', u'line', u'whoa', u'store']
=================================================================================================================================================
TWEET:	Mad props to the @apple employee that didn't charge me to replace the back plate on my iPhone! Made my day!
HANDCODED_EMOTION:	positive
SUM_SCORE:	somewhat positive 1.15386343217
EMOTICONS_SCORE:	0.0
COMBINED_SUM_EMOTICONS:	1.15386343217
NVAR_SCORE:	1.175
ASPECTS:	[u'didn', u'replace', u'charge', u'iphone', u'props', u'employee', u'day']
=================================================================================================================================================
TWEET:	need @apple help!! installing new ios on #iphone4 and am stuck on the Find My iPhone screen :( i keep clicking next but it doesn't work
HANDCODED_EMOTION:	negative
SUM_SCORE:	somewhat positive 1.01448384191
EMOTICONS_SCORE:	0.0
COMBINED_SUM_EMOTICONS:	0.507241920954
NVAR_SCORE:	1.04166666667
ASPECTS:	[u'apple', u'doesn', u'am', u'screen', u'work', u'ios', u'stuck', u'iphone', u'find', u'help']
=================================================================================================================================================
TWEET:	@azrael: RT @DavideGori: And again #MobileMe is down. Issues when syncing, accessing mail... is this a good premise for #iCloud? @Apple, ...
HANDCODED_EMOTION:	negative
SUM_SCORE:	somewhat positive 1.04927248677
EMOTICONS_SCORE:	0.0
COMBINED_SUM_EMOTICONS:	1.04927248677
NVAR_SCORE:	1.125
ASPECTS:	[u'icloud', u'premise', u'mobileme', u'mail', u'azrael', u'davidegori', u'issues', u'apple']
=================================================================================================================================================
TWEET:	RT @MyMelange: Wall to wall people, security and a huge line outside just to get in the @Apple store.  http://t.co/i1khkgJm
HANDCODED_EMOTION:	neutral
SUM_SCORE:	somewhat negative 0.992843915344
EMOTICONS_SCORE:	0.0
COMBINED_SUM_EMOTICONS:	0.992843915344
NVAR_SCORE:	0.953125
ASPECTS:	[u'mymelange', u'apple', u'people', u'wall', u'get', u'security', u'line', u'store']
=================================================================================================================================================
TWEET:	@amandbrar @apple Siri has worked for me less than 10% of the time. If service doesn't improve by Monday, I'm returning my iPhone 4S.
HANDCODED_EMOTION:	negative
SUM_SCORE:	somewhat negative 0.997666666667
EMOTICONS_SCORE:	0.0
COMBINED_SUM_EMOTICONS:	0.997666666667
NVAR_SCORE:	1.075
ASPECTS:	[u'amandbrar', u'service', u'siri', u'm', u'doesn', u'iphone', u'monday', u'apple']
=================================================================================================================================================
TWEET:	@apple has changed life.
HANDCODED_EMOTION:	positive
SUM_SCORE:	somewhat positive 1.06944444444
EMOTICONS_SCORE:	0.0
COMBINED_SUM_EMOTICONS:	1.06944444444
NVAR_SCORE:	1.0
ASPECTS:	[u'life', u'apple']
=================================================================================================================================================
TWEET:	I want everybody on earth to iMessage me.  Is there anyway the world can iMessage me without giving them my phone number??? @Apple
HANDCODED_EMOTION:	neutral
SUM_SCORE:	somewhat negative 0.948125
EMOTICONS_SCORE:	0.0
COMBINED_SUM_EMOTICONS:	0.948125
NVAR_SCORE:	1.07142857143
ASPECTS:	[u'everybody', u'apple', u'imessage', u'number', u'phone', u'want', u'world', u'earth']
=================================================================================================================================================
TWEET:	So @apple changed the look of their on/off toggle. I wonder how long it will take for all the hip web apps to follow...
HANDCODED_EMOTION:	neutral
SUM_SCORE:	somewhat positive 1.02113770648
EMOTICONS_SCORE:	0.0
COMBINED_SUM_EMOTICONS:	1.02113770648
NVAR_SCORE:	1.078125
ASPECTS:	[u'hip', u'web', u'off', u'apple', u'apps', u'toggle', u'wonder', u'look']
=================================================================================================================================================
TWEET:	SpeechTrans http://t.co/TW3SzX61 on @Apple App store listed as the #best bi-directional #Speech To Speech #Translator --- Posts on Twitter
HANDCODED_EMOTION:	neutral
SUM_SCORE:	somewhat positive 1.02763157895
EMOTICONS_SCORE:	0.0
COMBINED_SUM_EMOTICONS:	1.02763157895
NVAR_SCORE:	1.125
ASPECTS:	[u'app', u'posts', u'translator', u'speechtrans', u'speech', u'twitter', u'store']
=================================================================================================================================================
TWEET:	@thatstevegray done that buddy, just  surprised that there's no option from @apple & if you turn it back on it brings back the pics u delete
HANDCODED_EMOTION:	neutral
SUM_SCORE:	somewhat negative 0.931172046955
EMOTICONS_SCORE:	0.0
COMBINED_SUM_EMOTICONS:	0.931172046955
NVAR_SCORE:	1.03125
ASPECTS:	[u'apple', u'option', u'thatstevegray', u'brings', u'pics', u'buddy']
=================================================================================================================================================
TWEET:	#SaturdayCute: Shit That #Siri Says. @Apple designers knew what people were going to ask the new digital assistant... http://t.co/Ecji1iIo
HANDCODED_EMOTION:	neutral
SUM_SCORE:	somewhat negative 0.875496031746
EMOTICONS_SCORE:	0.0
COMBINED_SUM_EMOTICONS:	0.875496031746
NVAR_SCORE:	0.975
ASPECTS:	[u'apple', u'people', u'assistant', u'siri', u'saturdaycute', u'digital', u'ask', u'designers']
=================================================================================================================================================
TWEET:	RT @SawyerHartman: I FU*KING LOVE YOU @APPLE this phone is the best thing ever !! SIRI = BEST THING EVER MADE
HANDCODED_EMOTION:	positive
SUM_SCORE:	somewhat positive 1.16990740741
EMOTICONS_SCORE:	0.0
COMBINED_SUM_EMOTICONS:	1.16990740741
NVAR_SCORE:	1.15
ASPECTS:	[u'love', u'siri', u'phone', u'sawyerhartman', u'apple']
=================================================================================================================================================
TWEET:	@apple so why is the ios support for 2nd gen ipods discontinued? It is only 3 years old? Give us an ios update please!
HANDCODED_EMOTION:	neutral
SUM_SCORE:	somewhat positive 1.0066786859
EMOTICONS_SCORE:	0.0
COMBINED_SUM_EMOTICONS:	1.0066786859
NVAR_SCORE:	1.0
ASPECTS:	[u'apple', u'ios', u'support', u'nd', u'years', u'ipods']
=================================================================================================================================================
TWEET:	Do not check other site for Ed Hardy Black Long Sl http://t.co/hengQGqp@Unlocked @Apple @Touch @Phones
HANDCODED_EMOTION:	irrelevant
SUM_SCORE:	somewhat negative 0.82289244186
EMOTICONS_SCORE:	0.0
COMBINED_SUM_EMOTICONS:	0.82289244186
NVAR_SCORE:	0.910714285714
ASPECTS:	[u'phones', u'apple', u'touch', u'hardy', u'black', u'sl']
=================================================================================================================================================
TWEET:	RT @ajrogers Purdie Rogers tribute to #SteveJobs and @apple. We spray painted the Macintosh Plus w.. http://t.co/oMXjhZh0
HANDCODED_EMOTION:	neutral
SUM_SCORE:	somewhat positive 1.04985119048
EMOTICONS_SCORE:	0.0
COMBINED_SUM_EMOTICONS:	1.04985119048
NVAR_SCORE:	1.0
ASPECTS:	[u'apple', u'rogers', u'stevejobs', u'ajrogers', u'macintosh']
=================================================================================================================================================
TWEET:	Do not check other site for Uhmw Conveyor.Now you go best site of Uhmw Conveyor. http://t.co/8RMV5D2q@9 @Pin @Cable @Apple
HANDCODED_EMOTION:	irrelevant
SUM_SCORE:	somewhat negative 0.916360294118
EMOTICONS_SCORE:	0.0
COMBINED_SUM_EMOTICONS:	0.916360294118
NVAR_SCORE:	1.01785714286
ASPECTS:	[u'cable', u'pin', u'conveyor', u'uhmw', u'apple']
=================================================================================================================================================
TWEET:	RT @ajrogers Purdie Rogers tribute to #SteveJobs and @apple. We spray painted the Macintosh Plus w.. http://t.co/AlDicTd1
HANDCODED_EMOTION:	neutral
SUM_SCORE:	somewhat positive 1.04985119048
EMOTICONS_SCORE:	0.0
COMBINED_SUM_EMOTICONS:	1.04985119048
NVAR_SCORE:	1.0
ASPECTS:	[u'apple', u'rogers', u'stevejobs', u'ajrogers', u'macintosh']
=================================================================================================================================================
TWEET:	when is @apple gonna update the fact that i can't see emoji on twitter for mac?
HANDCODED_EMOTION:	neutral
SUM_SCORE:	somewhat positive 1.0234375
EMOTICONS_SCORE:	0.0
COMBINED_SUM_EMOTICONS:	1.0234375
NVAR_SCORE:	1.0
ASPECTS:	[u'na', u'update', u'mac', u'twitter', u'fact', u'emoji']
=================================================================================================================================================
TWEET:	In honor of Steve Jobs. @apple #RIPSteve http://t.co/NyjhkNoU
HANDCODED_EMOTION:	neutral
SUM_SCORE:	neutral 1.0
EMOTICONS_SCORE:	0.0
COMBINED_SUM_EMOTICONS:	1.0
NVAR_SCORE:	1.0
ASPECTS:	[u'jobs', u'honor', u'apple']
=================================================================================================================================================
TWEET:	Now @apple won't let me use credit on @iTunes unless I have a credit card. Should have told me when I redeemed the cards. Sound fair to you?
HANDCODED_EMOTION:	negative
SUM_SCORE:	somewhat negative 0.978826512419
EMOTICONS_SCORE:	0.0
COMBINED_SUM_EMOTICONS:	0.978826512419
NVAR_SCORE:	1.11111111111
ASPECTS:	[u'use', u'apple', u'itunes', u'credit', u'let', u'cards', u'card']
=================================================================================================================================================
TWEET:	@apple why isn't my iTunes updating? I just wanna update my iPhone to IOS5!!! Then iTunes says that it needs to update to do it. Then fails!
HANDCODED_EMOTION:	negative
SUM_SCORE:	somewhat positive 1.08108766234
EMOTICONS_SCORE:	0.0
COMBINED_SUM_EMOTICONS:	1.08108766234
NVAR_SCORE:	1.025
ASPECTS:	[u'apple', u'na', u'ios', u'itunes', u'isn', u'iphone']
=================================================================================================================================================
TWEET:	@apple why does #iPhone4 plus #iOS5 equal half the battery life?
HANDCODED_EMOTION:	negative
SUM_SCORE:	somewhat positive 1.06766666667
EMOTICONS_SCORE:	0.0
COMBINED_SUM_EMOTICONS:	1.06766666667
NVAR_SCORE:	0.95
ASPECTS:	[u'life', u'apple', u'battery', u'iphone', u'half']
=================================================================================================================================================
TWEET:	Waiting on line @Apple store at west 14th Street.
HANDCODED_EMOTION:	neutral
SUM_SCORE:	somewhat positive 1.03265306122
EMOTICONS_SCORE:	0.0
COMBINED_SUM_EMOTICONS:	1.03265306122
NVAR_SCORE:	1.0
ASPECTS:	[u'apple', u'west', u'street', u'line', u'store']
=================================================================================================================================================
TWEET:	@sprint is slow, slow, slow. beware when signing with #SlowSprint. @apple #iphone #iphone4 #iphone4s #Siri #android #TheBufferingNetwork
HANDCODED_EMOTION:	neutral
SUM_SCORE:	somewhat negative 0.972727272727
EMOTICONS_SCORE:	0.0
COMBINED_SUM_EMOTICONS:	0.972727272727
NVAR_SCORE:	0.833333333333
ASPECTS:	[u'apple', u'beware', u'siri', u'slowsprint', u'iphone', u'sprint', u'thebufferingnetwork']
=================================================================================================================================================
TWEET:	Find more the best Cyst On Knee deal.Check price of best Cyst On Knee and offers now. http://t.co/qzYnNuvI@Automatic @Apple
HANDCODED_EMOTION:	irrelevant
SUM_SCORE:	somewhat positive 1.08455709586
EMOTICONS_SCORE:	0.0
COMBINED_SUM_EMOTICONS:	1.08455709586
NVAR_SCORE:	1.19642857143
ASPECTS:	[u'deal', u'price', u'offers', u'knee', u'cyst', u'check']
=================================================================================================================================================
TWEET:	.@apple thanks for fixing this... http://t.co/wTj1ogDO
HANDCODED_EMOTION:	positive
SUM_SCORE:	neutral 1.0
EMOTICONS_SCORE:	0.0
COMBINED_SUM_EMOTICONS:	1.0
NVAR_SCORE:	0.9375
ASPECTS:	[u'apple', u'thanks']
=================================================================================================================================================
TWEET:	Warning: if iphone apps spontaneously loose data, it might not be the app's fault - http://t.co/1SEsvWwm #ios5downgrade @apple @marcoarment
HANDCODED_EMOTION:	negative
SUM_SCORE:	somewhat negative 0.893209876543
EMOTICONS_SCORE:	0.0
COMBINED_SUM_EMOTICONS:	0.893209876543
NVAR_SCORE:	0.854166666667
ASPECTS:	[u'ios', u'apps', u'marcoarment', u'iphone', u'data']
=================================================================================================================================================
TWEET:	@davidcohen Sounds like 2nd day strategy isn't working. We got ours yesterday - in and out in no time. @Apple staff awesome/efficient!
HANDCODED_EMOTION:	neutral
SUM_SCORE:	somewhat positive 1.10879251701
EMOTICONS_SCORE:	0.0
COMBINED_SUM_EMOTICONS:	1.10879251701
NVAR_SCORE:	1.02083333333
ASPECTS:	[u'efficient', u'awesome', u'yesterday', u'strategy', u'isn', u'got', u'staff', u'day', u'apple']
=================================================================================================================================================
TWEET:	@hbogo @apple - why don't you play nice and let me use HDMI from iPad?  Pretty lame.
HANDCODED_EMOTION:	negative
SUM_SCORE:	somewhat positive 1.1056372549
EMOTICONS_SCORE:	0.0
COMBINED_SUM_EMOTICONS:	1.1056372549
NVAR_SCORE:	1.109375
ASPECTS:	[u'hdmi', u'ipad', u'don', u'apple', u'hbogo', u'use', u'let']
=================================================================================================================================================
TWEET:	http://t.co/CvEKdOIQ line at @Apple northpark #dallas mall. #4GSiPhone
HANDCODED_EMOTION:	neutral
SUM_SCORE:	somewhat negative 0.992346938776
EMOTICONS_SCORE:	0.0
COMBINED_SUM_EMOTICONS:	0.992346938776
NVAR_SCORE:	1.0
ASPECTS:	[u'gsiphone', u'apple', u'dallas', u'northpark', u'line']
=================================================================================================================================================
TWEET:	Find more the best Maytag Washer Control Board deal.Check pric http://t.co/SNdkAg3e@Best @Apple @Peeler
HANDCODED_EMOTION:	irrelevant
SUM_SCORE:	somewhat positive 1.0703125
EMOTICONS_SCORE:	0.0
COMBINED_SUM_EMOTICONS:	1.0703125
NVAR_SCORE:	1.09375
ASPECTS:	[u'control', u'apple', u'deal', u'pric', u'peeler', u'board', u'maytag', u'check']
=================================================================================================================================================
TWEET:	Hey guys at @Apple, WTF is happening to #iPhone4, with #iOS5 suddenly fade to black and begin to vibrate continuously, I had to reboot it
HANDCODED_EMOTION:	negative
SUM_SCORE:	somewhat negative 0.953191489362
EMOTICONS_SCORE:	0.0
COMBINED_SUM_EMOTICONS:	0.953191489362
NVAR_SCORE:	0.895833333333
ASPECTS:	[u'begin', u'ios', u'vibrate', u'iphone', u'wtf', u'guys']
=================================================================================================================================================
TWEET:	I am crazy about #iOS5 . The photo cropping is the best! @apple
HANDCODED_EMOTION:	positive
SUM_SCORE:	somewhat negative 0.916666666667
EMOTICONS_SCORE:	0.0
COMBINED_SUM_EMOTICONS:	0.916666666667
NVAR_SCORE:	1.09375
ASPECTS:	[u'crazy', u'apple', u'am', u'ios']
=================================================================================================================================================
TWEET:	Find more the best Angel Christmas Tree O http://t.co/d5G1rY5d@Starfrit @Apple @Peeler
HANDCODED_EMOTION:	irrelevant
SUM_SCORE:	somewhat positive 1.09375
EMOTICONS_SCORE:	0.0
COMBINED_SUM_EMOTICONS:	1.09375
NVAR_SCORE:	1.175
ASPECTS:	[u'apple', u'angel', u'peeler']
=================================================================================================================================================
TWEET:	Wow, worst @apple customer service experience ever. Arrogant and inept. Bad combo, Biltmore Apple store.
HANDCODED_EMOTION:	negative
SUM_SCORE:	somewhat negative 0.849675324675
EMOTICONS_SCORE:	0.0
COMBINED_SUM_EMOTICONS:	0.849675324675
NVAR_SCORE:	0.916666666667
ASPECTS:	[u'customer', u'apple', u'service', u'biltmore', u'wow', u'inept', u'experience', u'store', u'combo', u'arrogant']
=================================================================================================================================================
TWEET:	RT @leiboaz: Wow, worst @apple customer service experience ever. Arrogant and inept. Bad combo, Biltmore Apple store.
HANDCODED_EMOTION:	negative
SUM_SCORE:	somewhat negative 0.849675324675
EMOTICONS_SCORE:	0.0
COMBINED_SUM_EMOTICONS:	0.849675324675
NVAR_SCORE:	0.902777777778
ASPECTS:	[u'customer', u'apple', u'service', u'biltmore', u'inept', u'leiboaz', u'experience', u'store', u'combo', u'arrogant']
=================================================================================================================================================
TWEET:	RT @To1ne: .@apple thanks for fixing this... http://t.co/wTj1ogDO
HANDCODED_EMOTION:	positive
SUM_SCORE:	neutral 1.0
EMOTICONS_SCORE:	0.0
COMBINED_SUM_EMOTICONS:	1.0
NVAR_SCORE:	0.875
ASPECTS:	[u'thanks']
=================================================================================================================================================
TWEET:	#IOS5  needed to include a landscape mode for reminders @Apple
HANDCODED_EMOTION:	neutral
SUM_SCORE:	somewhat negative 0.984615384615
EMOTICONS_SCORE:	0.0
COMBINED_SUM_EMOTICONS:	0.984615384615
NVAR_SCORE:	1.0
ASPECTS:	[u'ios', u'reminders', u'mode', u'include', u'landscape']
OK: 100
